{
  "servers": {
    "count": 20,
    "next": "http://0.0.0.0:8000/servers/?page=2",
    "previous": null,
    "results": [
      {
        "id": "1acf1758-8e38-46a6-b056-94c544e80a6c",
        "display_name": "demo-server-1",
        "zone": "nova",
        "organization": "demo",
        "state": "running",
        "ipv4": "10.11.12.181",
        "os_version": "0.6.1",
        "os_distribution": "Centos"
      },
      {
        "id": "2acf1758-8e38-46a6-b056-94c544e80a6c",
        "display_name": "demo-server-2",
        "zone": "nova",
        "organization": "demo",
        "state": "shutdown",
        "ipv4": "10.11.12.182",
        "os_version": "0.6.1",
        "os_distribution": "Ubuntu"
      },
      {
        "id": "3acf1758-8e38-46a6-b056-94c544e80a6c",
        "display_name": "demo-server-3",
        "zone": "nova",
        "organization": "demo",
        "state": "pending",
        "ipv4": "10.11.12.183",
        "os_version": "0.6.1",
        "os_distribution": "Windows"
      },
      {
        "id": "4acf1758-8e38-46a6-b056-94c544e80a6c",
        "display_name": "demo-server-4",
        "zone": "nova",
        "organization": "demo",
        "state": "creating",
        "ipv4": "10.11.12.184",
        "os_version": "0.6.1",
        "os_distribution": "Centos"
      }
    ]
  },
  "servers2": [
    {
      "id": "1acf1758-8e38-46a6-b056-94c544e80a6c",
      "name": "demo-server-1",
      "display_name": "demo-server-1",
      "zone": "nova",
      "organization": "demo",
      "description": "string",
      "ram": 2,
      "vcpus": 2,
      "root_disk": 1,
      "gpus": 0,
      "family": "basic",
      "state": "running",
      "key_pair": null,
      "user_data": "",
      "user": "root",
      "password": "OMZ@123",
      "os_distribution": "Centos",
      "os_version": "0.6.1",
      "ipv4": "10.11.12.181",
      "created_at": "2023-02-15T10:53:20.487084Z",
      "updated_at": "2023-02-15T11:08:42.532376Z"
    },
    {
      "id": "2acf1758-8e38-46a6-b056-94c544e80a6c",
      "name": "demo-server-2",
      "display_name": "demo-server-2",
      "zone": "nova",
      "organization": "demo",
      "description": "string",
      "ram": 2,
      "vcpus": 2,
      "root_disk": 1,
      "gpus": 0,
      "family": "basic",
      "state": "running",
      "key_pair": null,
      "user_data": "",
      "user": "root",
      "password": "OMZ@123",
      "os_distribution": "Centos",
      "os_version": "0.6.1",
      "ipv4": "10.11.12.181",
      "created_at": "2023-02-15T10:53:20.487084Z",
      "updated_at": "2023-02-15T11:08:42.532376Z"
    },
    {
      "id": "3acf1758-8e38-46a6-b056-94c544e80a6c",
      "name": "demo-server-3",
      "display_name": "demo-server-3",
      "zone": "nova",
      "organization": "demo",
      "description": "string",
      "ram": 2,
      "vcpus": 2,
      "root_disk": 1,
      "gpus": 0,
      "family": "basic",
      "state": "running",
      "key_pair": null,
      "user_data": "",
      "user": "root",
      "password": "OMZ@123",
      "os_distribution": "Centos",
      "os_version": "0.6.1",
      "ipv4": "10.11.12.183",
      "created_at": "2023-02-15T10:53:20.487084Z",
      "updated_at": "2023-02-15T11:08:42.532376Z"
    },
    {
      "id": "4acf1758-8e38-46a6-b056-94c544e80a6c",
      "name": "demo-server-4",
      "display_name": "demo-server-4",
      "zone": "nova",
      "organization": "demo",
      "description": "string",
      "ram": 2,
      "vcpus": 2,
      "root_disk": 1,
      "gpus": 0,
      "family": "basic",
      "state": "running",
      "key_pair": null,
      "user_data": "",
      "user": "root",
      "password": "OMZ@123",
      "os_distribution": "Centos",
      "os_version": "0.6.1",
      "ipv4": "10.11.12.184",
      "created_at": "2023-02-15T10:53:20.487084Z",
      "updated_at": "2023-02-15T11:08:42.532376Z"
    }
  ],
  "volumes": {
    "count": 20,
    "next": "http://0.0.0.0:8000/volumes/?page=2",
    "previous": null,
    "results": [
      {
        "id": "1acf1758-8e38-46a6-b056-94c544e80a6c",
        "display_name": "demo-volume-1",
        "zone": "nova",
        "organization": "demo",
        "state": "available",
        "server": {
          "id": "",
          "display_name": ""
        },
        "volume_type": "SSD"
      },
      {
        "id": "2acf1758-8e38-46a6-b056-94c544e80a6c",
        "display_name": "demo-volume-2",
        "zone": "nova",
        "organization": "demo",
        "state": "in-use",
        "server": {
          "id": "10.11.12.181",
          "display_name": "my-server-2"
        },
        "volume_type": "HDD"
      },
      {
        "id": "3acf1758-8e38-46a6-b056-94c544e80a6c",
        "display_name": "demo-volume-3",
        "zone": "nova",
        "organization": "demo",
        "state": "pending",
        "server": {
          "id": "",
          "display_name": ""
        },
        "volume_type": "SSD"
      },
      {
        "id": "4acf1758-8e38-46a6-b056-94c544e80a6c",
        "display_name": "demo-volume-4",
        "zone": "nova",
        "organization": "demo",
        "state": "creating",
        "server": {
          "id": "",
          "display_name": ""
        },
        "volume_type": "HDD"
      }
    ]
  },
  "volumes2": [
    {
      "id": "1acf1758-8e38-46a6-b056-94c544e80a6c",
      "name": "demo-volume-1",
      "display_name": "demo-volume-1",
      "zone": "nova",
      "organization": "demo",
      "description": "string demo",
      "size": 2,
      "state": "available",
      "volume_type": "SSD",
      "created_at": "2023-02-17T03:48:39.885677Z",
      "updated_at": "2023-02-17T03:53:54.287873Z",
      "server": null
    },
    {
      "id": "2acf1758-8e38-46a6-b056-94c544e80a6c",
      "name": "demo-volume-2",
      "display_name": "demo-volume-2",
      "zone": "nova",
      "organization": "demo",
      "description": "string demo",
      "size": 2,
      "state": "in-use",
      "volume_type": "HDD",
      "created_at": "2023-02-17T03:48:39.885677Z",
      "updated_at": "2023-02-17T03:53:54.287873Z",
      "server": {
        "id": "10.11.12.181",
        "name": "my-server-2"
      }
    },
    {
      "id": "3acf1758-8e38-46a6-b056-94c544e80a6c",
      "name": "demo-volume-3",
      "display_name": "demo-volume-3",
      "zone": "nova",
      "organization": "demo",
      "description": "string demo",
      "size": 2,
      "state": "pending",
      "volume_type": "SSD",
      "created_at": "2023-02-17T03:48:39.885677Z",
      "updated_at": "2023-02-17T03:53:54.287873Z",
      "server": null
    },
    {
      "id": "4acf1758-8e38-46a6-b056-94c544e80a6c",
      "name": "demo-volume-4",
      "display_name": "demo-volume-4",
      "zone": "nova",
      "organization": "demo",
      "description": "string demo",
      "size": 2,
      "state": "retyping",
      "volume_type": "HDD",
      "created_at": "2023-02-17T03:48:39.885677Z",
      "updated_at": "2023-02-17T03:53:54.287873Z",
      "server": null
    }
  ],
  "iam": [
    {
      "id": "1",
      "name": "donghm",
      "email": "donghm@omz.com"
    },
    {
      "userName": "",
      "values": "[object Object]",
      "callbackUrl": "/",
      "redirect": "false",
      "csrfToken": "818eebf8359b8cd5384381e0a46513f1ba0a4cb97cda868002593e44f25aba01",
      "json": "true",
      "id": "SOLcV1b"
    },
    {
      "credentials": "[object Object]",
      "callbackUrl": "http://192.168.1.7:3000/",
      "redirect": "false",
      "csrfToken": "74c1e9e206919030a87cefac167e0b1003b0daa0da588c80efe2b10ef702bbe2",
      "json": "true",
      "id": "Bdh9SU5"
    },
    {
      "credentials": "[object Object]",
      "callbackUrl": "http://192.168.1.7:3000/",
      "redirect": "false",
      "csrfToken": "8c396d6c7d8dd203d591bfcf4fb45c5c0deca36f44e19617f979f113b2d4cfb0",
      "json": "true",
      "id": "zG71tE7"
    },
    {
      "credentials": "[object Object]",
      "callbackUrl": "http://192.168.1.7:3000/",
      "redirect": "false",
      "csrfToken": "8c396d6c7d8dd203d591bfcf4fb45c5c0deca36f44e19617f979f113b2d4cfb0",
      "json": "true",
      "id": "nUJAUkF"
    },
    {
      "credentials": "[object Object]",
      "callbackUrl": "http://192.168.1.7:3000/",
      "redirect": "false",
      "csrfToken": "5e630e5441714a921527779d872e7da9815d489fe914db21df5c350eec9923ef",
      "json": "true",
      "id": "dbUqTO7"
    },
    {
      "credentials": "[object Object]",
      "callbackUrl": "http://192.168.1.7:3000/",
      "redirect": "false",
      "csrfToken": "88aab4a4cee6c18e50cb73eaad054ef8dc5aaca5ab17836741c70e96a7367727",
      "json": "true",
      "id": "UidS5sK"
    },
    {
      "credentials": "[object Object]",
      "callbackUrl": "http://192.168.1.7:3000/",
      "redirect": "false",
      "csrfToken": "f633a7ef7a70b276bba63a5a21b2f8434bce4debf5f23c58aa583e8216542e4b",
      "json": "true",
      "id": "276Rqtg"
    },
    {
      "credentials": "[object Object]",
      "callbackUrl": "http://192.168.1.7:3000/",
      "redirect": "false",
      "csrfToken": "f633a7ef7a70b276bba63a5a21b2f8434bce4debf5f23c58aa583e8216542e4b",
      "json": "true",
      "id": "Kdg9o40"
    },
    {
      "credentials": "[object Object]",
      "callbackUrl": "http://192.168.1.7:3000/",
      "redirect": "false",
      "csrfToken": "c273e73b9b5508c1ef73e401c65cd7ee674be39b9a5a38bb2f9d655bce0957bf",
      "json": "true",
      "id": "vsYXUU1"
    },
    {
      "credentials": "[object Object]",
      "callbackUrl": "http://192.168.1.7:3000/",
      "redirect": "false",
      "csrfToken": "95ce5dc2ce58342ec6bf2f8faabd5c94534cc8194a960f244baf89a0b92dc1c5",
      "json": "true",
      "id": "QjUZKEG"
    },
    {
      "credentials": "[object Object]",
      "callbackUrl": "http://192.168.1.7:3000/",
      "redirect": "false",
      "csrfToken": "95ce5dc2ce58342ec6bf2f8faabd5c94534cc8194a960f244baf89a0b92dc1c5",
      "json": "true",
      "id": "BBQsMyd"
    },
    {
      "credentials": "[object Object]",
      "callbackUrl": "http://192.168.1.7:3000/",
      "redirect": "false",
      "csrfToken": "4bf3dbb5df54670dd3a12fab60ddfd8397c1f9b2bb4f95af2b8e8e47f0504789",
      "json": "true",
      "id": "HpGFWBf"
    },
    {
      "credentials": "[object Object]",
      "callbackUrl": "http://192.168.1.7:3000/",
      "redirect": "false",
      "csrfToken": "4bf3dbb5df54670dd3a12fab60ddfd8397c1f9b2bb4f95af2b8e8e47f0504789",
      "json": "true",
      "id": "akdoxH3"
    },
    {
      "credentials": "[object Object]",
      "callbackUrl": "http://192.168.1.7:3000/",
      "redirect": "false",
      "csrfToken": "4bf3dbb5df54670dd3a12fab60ddfd8397c1f9b2bb4f95af2b8e8e47f0504789",
      "json": "true",
      "id": "1nExwSS"
    },
    {
      "credentials": "[object Object]",
      "callbackUrl": "http://192.168.1.7:3000/",
      "redirect": "false",
      "csrfToken": "4bf3dbb5df54670dd3a12fab60ddfd8397c1f9b2bb4f95af2b8e8e47f0504789",
      "json": "true",
      "id": "7dvtPJ0"
    },
    {
      "credentials": "[object Object]",
      "callbackUrl": "http://192.168.1.7:3000/",
      "redirect": "false",
      "csrfToken": "4bf3dbb5df54670dd3a12fab60ddfd8397c1f9b2bb4f95af2b8e8e47f0504789",
      "json": "true",
      "id": "wogUUmB"
    },
    {
      "credentials": "[object Object]",
      "callbackUrl": "http://192.168.1.7:3000/",
      "redirect": "false",
      "csrfToken": "4bf3dbb5df54670dd3a12fab60ddfd8397c1f9b2bb4f95af2b8e8e47f0504789",
      "json": "true",
      "id": "RkH_8tN"
    },
    {
      "credentials": "[object Object]",
      "callbackUrl": "http://192.168.1.7:3000/",
      "redirect": "false",
      "csrfToken": "4bf3dbb5df54670dd3a12fab60ddfd8397c1f9b2bb4f95af2b8e8e47f0504789",
      "json": "true",
      "id": "wssmFTS"
    }
  ],
  "mockTicketData": [
    {
      "name": "John",
      "status": "Pending",
      "created_at": "2023-02-17T03:48:39.885677Z",
      "updated_at": "2023-02-17T03:53:54.287873Z",
      "Priority":"High"
    },
    {
      "name": "Butcher",
      "status": "Creating",
      "created_at": "2023-02-17T03:48:39.885677Z",
      "updated_at": "2023-02-17T03:53:54.287873Z",
      "priority":"Low"
    },
    {
      "name": "Ryan",
      "status": "Pending",
      "created_at": "2023-02-17T03:48:39.885677Z",
      "updated_at": "2023-02-17T03:53:54.287873Z",
      "priority":"Normal"
    },
    {
      "name": "Annie",
      "status": "Closed",
      "created_at": "2023-02-17T03:48:39.885677Z",
      "updated_at": "2023-02-17T03:53:54.287873Z",
      "priority":"Low"
    }
  ]
}